flash=mmc,0:2ndboot:2nd:0x200,0x10000:bl1-emmcboot.bin;
flash=mmc,0:bootloader:boot:0x8000,0x300000:singleimage-emmcboot.bin;
flash=mmc,0:env:env:0x310200,0x4000:params.bin;
flash=mmc,0:boot:ext4:0x400000,0x2000000:boot.img;
flash=mmc,0:modules:ext4:0x2400000,0x2000000:modules.img;
flash=mmc,0:rootfs:ext4:0x4400000,0:rootfs.img;
